{
    "command": "/opt/elasticsearch_exporter/elasticsearch_exporter --es.uri http://192.168.1.40:9200 --web.listen-address 192.168.1.40:9108",
    "config_files": [],
    "permissions": [
        {
            "path": "/var/log/kolla/prometheus",
            "owner": "prometheus:kolla",
            "recurse": true
        }
    ]
}
