{
    "command": "/usr/sbin/httpd",
    "config_files": [
        {
            "source": "/var/lib/kolla/config_files/keystone.conf",
            "dest": "/etc/keystone/keystone.conf",
            "owner": "keystone",
            "perm": "0600"
        },
        {
            "source": "/var/lib/kolla/config_files/keystone-paste.ini",
            "dest": "/etc/keystone/keystone-paste.ini",
            "owner": "keystone",
            "perm": "0600",
            "optional": true
        },
        {
            "source": "/var/lib/kolla/config_files/domains",
            "dest": "/etc/keystone/domains",
            "owner": "keystone",
            "perm": "0600",
            "optional": true
        },
        {
            "source": "/var/lib/kolla/config_files/wsgi-keystone.conf",
            "dest": "/etc/httpd/conf.d/wsgi-keystone.conf",
            "owner": "keystone",
            "perm": "0600"
        }    ],
    "permissions": [
        {
            "path": "/var/log/kolla",
            "owner": "keystone:kolla"
        },
        {
            "path": "/var/log/kolla/keystone/keystone.log",
            "owner": "keystone:keystone"
        },
        {
            "path": "/etc/keystone/fernet-keys",
            "owner": "keystone:keystone",
            "perm": "0770"
        },
        {
            "path": "/etc/keystone/domains",
            "owner": "keystone:keystone",
            "perm": "0700"
        }
    ]
}
